<?xml version="1.0" standalone="no"?>
<!DOCTYPE svg PUBLIC "-//W3C//DTD SVG 1.1//EN" "http://www.w3.org/Graphics/SVG/1.1/DTD/svg11.dtd">
<svg xmlns="http://www.w3.org/2000/svg">
<metadata>Copyright (C) 2013 by original authors @ fontello.com</metadata>
<defs>
<font id="fontello" horiz-adv-x="1000" >
<font-face font-family="fontello" font-weight="400" font-stretch="normal" units-per-em="1000" ascent="850" descent="-150" />
<missing-glyph horiz-adv-x="1000" />
<glyph glyph-name="industrial-building" unicode="&#xe800;" d="m600 675c0-67 0-200 0-200l-150 0l0 150l-200-150l0 150l-200-150c-22-17-50-25-50-75l0-375c0-28 22-50 50-50l750 0c28 0 50 22 50 50l0 400c0 28-22 50-50 50l-100 0s0 133 0 200c0 25-26 50-50 50c-24 0-50-25-50-50z" horiz-adv-x="850" />
</font>
</defs>
</svg>