<?xml version="1.0" standalone="no"?>
<!DOCTYPE svg PUBLIC "-//W3C//DTD SVG 1.1//EN" "http://www.w3.org/Graphics/SVG/1.1/DTD/svg11.dtd">
<svg xmlns="http://www.w3.org/2000/svg">
<metadata>Copyright (C) 2013 by original authors @ fontello.com</metadata>
<defs>
<font id="fontello" horiz-adv-x="1000" >
<font-face font-family="fontello" font-weight="400" font-stretch="normal" units-per-em="1000" ascent="850" descent="-150" />
<missing-glyph horiz-adv-x="1000" />
<glyph glyph-name="truck" unicode="&#xe800;" d="m357 64q0 29-21 51t-50 21t-50-21t-22-51t22-50t50-21t50 21t21 50z m-214 286h214v143h-88q-7 0-12-5l-109-109q-5-5-5-12v-17z m714-286q0 29-21 51t-50 21t-51-21t-21-51t21-50t51-21t50 21t21 50z m143 607v-571q0-8-2-15t-8-10t-9-6t-13-4t-13-1t-14 0t-12 0q0-59-42-101t-101-42t-101 42t-42 101h-214q0-59-42-101t-101-42t-101 42t-42 101h-36q-1 0-12 0t-15 0t-12 1t-13 4t-9 6t-8 10t-2 15q0 15 10 25t25 11v178q0 5 0 20t0 21t2 19t3 21t8 17t13 17l110 110q11 11 28 18t33 7h89v107q0 15 11 26t25 10h571q15 0 25-10t11-26z" horiz-adv-x="1000" />
</font>
</defs>
</svg>